<?xml version="1.0" encoding="UTF-8" standalone="no"?>
<svg
   xmlns:osb="http://www.openswatchbook.org/uri/2009/osb"
   xmlns:dc="http://purl.org/dc/elements/1.1/"
   xmlns:cc="http://creativecommons.org/ns#"
   xmlns:rdf="http://www.w3.org/1999/02/22-rdf-syntax-ns#"
   xmlns:svg="http://www.w3.org/2000/svg"
   xmlns="http://www.w3.org/2000/svg"
   xmlns:xlink="http://www.w3.org/1999/xlink"
   xmlns:sodipodi="http://sodipodi.sourceforge.net/DTD/sodipodi-0.dtd"
   xmlns:inkscape="http://www.inkscape.org/namespaces/inkscape"
   width="48"
   height="48"
   id="svg3903"
   version="1.1"
   inkscape:version="1.0.1 (3bc2e813f5, 2020-09-07)"
   sodipodi:docname="folder-applications.svg">
  <defs
     id="defs3905">
    <linearGradient
       id="linearGradient3866">
      <stop
         id="stop3868"
         offset="0"
         style="stop-color:#000000;stop-opacity:0.52083331" />
      <stop
         id="stop3870"
         offset="1"
         style="stop-color:#2883c3;stop-opacity:0;" />
    </linearGradient>
    <linearGradient
       id="linearGradient3874">
      <stop
         id="stop3876"
         offset="0"
         style="stop-color:#000d0e;stop-opacity:0.84105963;" />
      <stop
         id="stop3878"
         offset="1"
         style="stop-color:#000000;stop-opacity:0;" />
    </linearGradient>
    <linearGradient
       id="linearGradient4232">
      <stop
         id="stop4234-0"
         offset="0"
         style="stop-color:#3889e9;stop-opacity:1" />
      <stop
         id="stop4236"
         offset="1"
         style="stop-color:#5ea5fb;stop-opacity:1" />
    </linearGradient>
    <style
       type="text/css"
       id="current-color-scheme">.ColorScheme-Text {
        color:#31363b;
      }
      .ColorScheme-Background{
        color:#eff0f1;
      }
      .ColorScheme-ViewText {
        color:#31363b;
      }
      .ColorScheme-ViewBackground{
        color:#fcfcfc;
      }
      .ColorScheme-ViewHover {
        color:#3daee9;
      }
      .ColorScheme-ViewFocus{
        color:#3daee9;
      }
      .ColorScheme-ButtonText {
        color:#31363b;
      }
      .ColorScheme-ButtonBackground{
        color:#eff0f1;
      }
      .ColorScheme-ButtonHover {
        color:#3daee9;
      }
      .ColorScheme-ButtonFocus{
        color:#3daee9;
      }</style>
    <style
       type="text/css"
       id="current-color-scheme-8">.ColorScheme-Text {
        color:#31363b;
      }
      .ColorScheme-Background{
        color:#eff0f1;
      }
      .ColorScheme-ViewText {
        color:#31363b;
      }
      .ColorScheme-ViewBackground{
        color:#fcfcfc;
      }
      .ColorScheme-ViewHover {
        color:#3daee9;
      }
      .ColorScheme-ViewFocus{
        color:#3daee9;
      }
      .ColorScheme-ButtonText {
        color:#31363b;
      }
      .ColorScheme-ButtonBackground{
        color:#eff0f1;
      }
      .ColorScheme-ButtonHover {
        color:#3daee9;
      }
      .ColorScheme-ButtonFocus{
        color:#3daee9;
      }</style>
    <style
       type="text/css"
       id="current-color-scheme-7">.ColorScheme-Text {
        color:#31363b;
      }
      .ColorScheme-Background{
        color:#eff0f1;
      }
      .ColorScheme-ViewText {
        color:#31363b;
      }
      .ColorScheme-ViewBackground{
        color:#fcfcfc;
      }
      .ColorScheme-ViewHover {
        color:#3daee9;
      }
      .ColorScheme-ViewFocus{
        color:#3daee9;
      }
      .ColorScheme-ButtonText {
        color:#31363b;
      }
      .ColorScheme-ButtonBackground{
        color:#eff0f1;
      }
      .ColorScheme-ButtonHover {
        color:#3daee9;
      }
      .ColorScheme-ButtonFocus{
        color:#3daee9;
      }</style>
    <linearGradient
       id="linearGradient4207"
       osb:paint="gradient">
      <stop
         style="stop-color:#3498db;stop-opacity:1;"
         offset="0"
         id="stop3371" />
      <stop
         style="stop-color:#3498db;stop-opacity:0;"
         offset="1"
         id="stop3373" />
    </linearGradient>
    <style
       type="text/css"
       id="current-color-scheme-0">.ColorScheme-Text {
        color:#31363b;
      }
      .ColorScheme-Background{
        color:#eff0f1;
      }
      .ColorScheme-ViewText {
        color:#31363b;
      }
      .ColorScheme-ViewBackground{
        color:#fcfcfc;
      }
      .ColorScheme-ViewHover {
        color:#3daee9;
      }
      .ColorScheme-ViewFocus{
        color:#3daee9;
      }
      .ColorScheme-ButtonText {
        color:#31363b;
      }
      .ColorScheme-ButtonBackground{
        color:#eff0f1;
      }
      .ColorScheme-ButtonHover {
        color:#3daee9;
      }
      .ColorScheme-ButtonFocus{
        color:#3daee9;
      }</style>
    <style
       type="text/css"
       id="current-color-scheme-8-6">.ColorScheme-Text {
        color:#31363b;
      }
      .ColorScheme-Background{
        color:#eff0f1;
      }
      .ColorScheme-ViewText {
        color:#31363b;
      }
      .ColorScheme-ViewBackground{
        color:#fcfcfc;
      }
      .ColorScheme-ViewHover {
        color:#3daee9;
      }
      .ColorScheme-ViewFocus{
        color:#3daee9;
      }
      .ColorScheme-ButtonText {
        color:#31363b;
      }
      .ColorScheme-ButtonBackground{
        color:#eff0f1;
      }
      .ColorScheme-ButtonHover {
        color:#3daee9;
      }
      .ColorScheme-ButtonFocus{
        color:#3daee9;
      }</style>
    <style
       type="text/css"
       id="current-color-scheme-7-6">.ColorScheme-Text {
        color:#31363b;
      }
      .ColorScheme-Background{
        color:#eff0f1;
      }
      .ColorScheme-ViewText {
        color:#31363b;
      }
      .ColorScheme-ViewBackground{
        color:#fcfcfc;
      }
      .ColorScheme-ViewHover {
        color:#3daee9;
      }
      .ColorScheme-ViewFocus{
        color:#3daee9;
      }
      .ColorScheme-ButtonText {
        color:#31363b;
      }
      .ColorScheme-ButtonBackground{
        color:#eff0f1;
      }
      .ColorScheme-ButtonHover {
        color:#3daee9;
      }
      .ColorScheme-ButtonFocus{
        color:#3daee9;
      }</style>
    <style
       type="text/css"
       id="current-color-scheme-4">.ColorScheme-Text {
        color:#31363b;
      }
      .ColorScheme-Background{
        color:#eff0f1;
      }
      .ColorScheme-ViewText {
        color:#31363b;
      }
      .ColorScheme-ViewBackground{
        color:#fcfcfc;
      }
      .ColorScheme-ViewHover {
        color:#3daee9;
      }
      .ColorScheme-ViewFocus{
        color:#3daee9;
      }
      .ColorScheme-ButtonText {
        color:#31363b;
      }
      .ColorScheme-ButtonBackground{
        color:#eff0f1;
      }
      .ColorScheme-ButtonHover {
        color:#3daee9;
      }
      .ColorScheme-ButtonFocus{
        color:#3daee9;
      }</style>
    <style
       type="text/css"
       id="current-color-scheme-8-0">.ColorScheme-Text {
        color:#31363b;
      }
      .ColorScheme-Background{
        color:#eff0f1;
      }
      .ColorScheme-ViewText {
        color:#31363b;
      }
      .ColorScheme-ViewBackground{
        color:#fcfcfc;
      }
      .ColorScheme-ViewHover {
        color:#3daee9;
      }
      .ColorScheme-ViewFocus{
        color:#3daee9;
      }
      .ColorScheme-ButtonText {
        color:#31363b;
      }
      .ColorScheme-ButtonBackground{
        color:#eff0f1;
      }
      .ColorScheme-ButtonHover {
        color:#3daee9;
      }
      .ColorScheme-ButtonFocus{
        color:#3daee9;
      }</style>
    <style
       type="text/css"
       id="current-color-scheme-7-7">.ColorScheme-Text {
        color:#31363b;
      }
      .ColorScheme-Background{
        color:#eff0f1;
      }
      .ColorScheme-ViewText {
        color:#31363b;
      }
      .ColorScheme-ViewBackground{
        color:#fcfcfc;
      }
      .ColorScheme-ViewHover {
        color:#3daee9;
      }
      .ColorScheme-ViewFocus{
        color:#3daee9;
      }
      .ColorScheme-ButtonText {
        color:#31363b;
      }
      .ColorScheme-ButtonBackground{
        color:#eff0f1;
      }
      .ColorScheme-ButtonHover {
        color:#3daee9;
      }
      .ColorScheme-ButtonFocus{
        color:#3daee9;
      }</style>
  </defs>
  <sodipodi:namedview
     id="base"
     pagecolor="#ffffff"
     bordercolor="#666666"
     borderopacity="1.0"
     inkscape:pageopacity="0.0"
     inkscape:pageshadow="2"
     inkscape:zoom="10.59984"
     inkscape:cx="5.3574031"
     inkscape:cy="22.84295"
     inkscape:current-layer="layer1"
     showgrid="true"
     inkscape:grid-bbox="true"
     inkscape:document-units="px"
     inkscape:window-width="1600"
     inkscape:window-height="870"
     inkscape:window-x="0"
     inkscape:window-y="0"
     inkscape:window-maximized="1"
     inkscape:document-rotation="0">
    <inkscape:grid
       type="xygrid"
       id="grid821"
       spacingx="0.3"
       spacingy="0.3" />
  </sodipodi:namedview>
  <metadata
     id="metadata3908">
    <rdf:RDF>
      <cc:Work
         rdf:about="">
        <dc:format>image/svg+xml</dc:format>
        <dc:type
           rdf:resource="http://purl.org/dc/dcmitype/StillImage" />
        <dc:title />
      </cc:Work>
    </rdf:RDF>
  </metadata>
  <g
     id="layer1"
     inkscape:label="Layer 1"
     inkscape:groupmode="layer">
    <g
       id="layer1-2"
       inkscape:label="Layer 1"
       style="display:none"
       transform="matrix(10.589787,0,0,10.589787,-6.8981011,-467.83874)">
      <image
         y="-0.078223988"
         x="-2.1485453"
         id="image3001"
         xlink:href="data:image/png;base64,iVBORw0KGgoAAAANSUhEUgAAAFsAAABaCAIAAABYCL1rAAAAA3NCSVQICAjb4U/gAAAgAElEQVR4 nN28aaxl2XUe9q219j7Dnd78auqauqu6u3pgT2STFMlwkElRlBwNSWQgiGzZzmAjQuxYERwhiGVH TuAkcggoVhQhCZwYcGIb8RAkEQxrICOJM0Wym80mu3qu7q7xzXc65+y918qPc++rV93VZLEfHQHZ uLj16tx7zzn7O2uvvda3vr3pEz/1b+BwLSEREZEAMKX942Q2+4MIUACAmhmRHPjW926kRkREBMDm 5wTwdidhu/3xW85JN3988JwA3G3PeeBv/d6nn5+XiITIzGBsZgABACkAai9KsDu+6ZvtDrDY/+wO oW7v9rYf3RaR76vp/tMzM5rfErXQHGwtNO/oGu2p9vtgt1jfrd/8fs55W1C+JyKtvbzVUm4eEZBB W0CMjN50HXuHKBy4lBGgeDMoM9Df5lHfSXvzMwNw6wB5h414/+xvN8T2jxtg9H0NmdsZwuxct+uP mX1fTuqt7fCjZn+8gIgIRCADVGejiW61kZk/+X5AaW1hdrb2fQ7H/mhqv6P0/Z35tu3QiJCpJoI6 YzFh1qSmqqTKzDMbJFLAWmAMIDUw2fzI97wCkxKRGpExGRnYTM3MFKSEduBIJAJIiQ5p9rdF5E7m l/3rJuVaq2q1XG1G1XQ6Fc/soaqeheBMikmVyuWlreG2FxAZg5VUiIwA8P7cNPcLOn/kBkCNxPF4 NFnodiilVE8zEg0xZ2iqktYxTSXPuOyA8yl5U2YVsrcda+8Mke+jKeCcV6e725tLefkTP/7JhUEe w/ClF59//eVXh+NxrQ3gJntbnSIPGn2W1XVDEDUYE1pXDAbDtEUFRgRTA8EMwGg0GXS6PtXUTPup lqRL3e6JI+unTh8bLPZRyOe++tVnL12uGS7vRPCdRwz/UhABZG9UL5S9zhKWu9npEwtF2M2leuLd 9+yc6G/sjr/w7Csv7+w0wY9D6fqL4zo5y0hB4NapGIGMrY3oiIQ4qZGxEdgMQJeZx1MXhzS+8fCp 9fc99MBat3P82NHd8Vg9Tb3/agwlfEJRxSw26h0D8Z33554LDx4GDyP4vKyrisJ0kPPj9506vVJM 3nh53dmJQVlYevdjjzBhY3tHmV2nOxxNCu8ZPAu8qHWTM+8rjP3Jm2BEJDBqpn2ERR3/2Hse/OkP PX48s45N89TEUA0WFqtoL776xl5F0+gi5VnRRWpoHiW9g3bY2ZcN9WiSi+S5q5vReLy7vrx84sj6 3vZWGI0WM8lGW5949IF/56d+dNmqybVXj652CcGoMQ7GARRAgTiyJFAAJaWUqFEOJskkEaoOT2V8 9ceffPATD59zm290wt5CxzVWB0erZ+8Gsskw1MOpxWQa63p82B4d8vcAvFCeuRjCaDSqqqZOtvzw E36wshutURPVuL2xxvGnP/zeM8vl6MbrrAFmsARLBGUQwxhGpoCSJdLEpkTGpqx1noZ/+l/92BPn T2TNcOC5qafDqtlu9Oh9D2HtxLW9emccxBW9spfnGQsO6Ud+EBEaEZKSmpP86o295y9vY/30sQ/8 ia1s0PSXx010mo44uW+5/8TdJxY4eTM2IWVSRiJLLQ4gY0qEiPaIQKBEsXnfA6eO91CmSRjtsXjL F3a5u3zfo+VdF65uNy9cH25NtTbaG4+aauLksN05LCJKcHkWQQpRc5eubF7ZHI9vDNFdfOBDH74y HnOR9YpcpuMVRw+fPLFgsUQorCmsybXOUuPj1IWJC5MsVV4rl6Y+NZnVXuvM6jxWF46sHClEUiWZ jJNW7I6fuW/t7oe4WHr+0vVLG9ub0ynlZVaWXhzFw3bpsIgYuEo0ToiSB/jnX3ptEuxbL7wUzbDY e/h9jyeP7b2tphpLXR/tdNbzjEebrtrKw24R94q4VcStTtjqxm1f38iqG1l1I282ijjsYVKmUTbd uf/IEdkbqWptthui6y12LzwKda9ffHVvY+upbz3TW1tunEyixRqZ+QPe+Z20H0AU77OM4LUeKwsT /fbv/+FP/MlPfOvbzz7y6L1yZO34+bNvfOkrFrkoi7wal8Ote/tL5aC/srKytLzQ6XREhNQSEpFM q0pVg6bXL79x8fkXJ5PJ0UKqy5fuOro8pTiK6PR6a+96FOLqza3Lly9/5jOf4dxPYmNOSDiXDGrg Q4UkdEjGSAlNImj0SINMdLSXofngE+96+NyJrkzvWe+vOKpef40m0aKiGGyPJq4owcTMgKqqmTER oM5lSbUKjcKKTsdl+c7OzvaVN04tdjuFREeb0+rsg4+iv/7y67vXhuGpl17/Pz7z2c6xo5OkiT3M eypDE8mZ0TtH5LDxCAFEycGECcC0qhb63Y3Lr3UFp1YGrhptvPxCQeZSyhhxMl7qd3wzKSwUsc61 zlPT1dix2LHA02GBMPDcJfWxkmrco7S20O1lknkWxyAaTusXXr5USfHC1Y0/eOrpyon63JyAqQ3x kiU6nHM9LCKACsXcS1LEmMqy0zSVR9p4/dVOau5eW+2a9ZxoaLwXbylMR226ygDDyAwWVWPUmBdZ VVcxBO8dCYUYAStLP54OJ+MdaxonxOyjy37nq1//na9/83owWVwZ1xEkBIKpIrHM47t32g49+5Kp 2biamsH5IqjEJM7n0/Hk9PqxHvlcabozNrPQNOh69pQX4sUMQVMwjUTmveSFrybjMvfd0qdYNfU0 81QWLsXY7fYyX/TLkqo6j6GAQdNotNddWhrVqpzVidQExgSlQ9MBh559QZpnQTy5jpPutI4uy7f3 dt/18IN3HVnT0ThvaFAMyrzfKCZNCLmvY7AUheAdec/ChBhTXRVlYZpCaJipyBw01fU0xhgqOC3S JHbzDocmT/FnPvnJvjgfiRMbCkMnaWbqkBwiyA7VKZ6/5h38vr0011XM806INq2aXtnTGDJKH/vg kyUn0cbBkHQymnT6g8SImpi5nR0VhpZ5E4gINO6ztqrJoMzsnGPAOSdlF2ZWh0zj3tXLP/vTP739 2mv9zFuIANQAbv0HgXTfUJRuvt6+3dJruef+d7VJF1GimySOAUb7LyMQzIycRE0KE2YADDKzjLJQ pSzrNdVUtHrs/Imf+fh7O9VmX8eZNgJiL4kMrMyKFLw5EIPImHRGsykMxE7V1ABycI6YjIxgKdZk UXIJ04kSQ3L4Tt5bqBVXN7akLCbVNCszZoRYiwgURCCGMgwzLpaI5sWBGa03I+OgSmYEIyYwYC0i 87LBvIigNPvNnBOcUXra5qMiMzIHMypxUjfkfUT81Mc/8sQDp1elWkijrlYlmZAA5PN8Mh7GMOnk GZQBUtKWY7Q2AW4fCojFt6RkShGkIpyXRZyOHan4jMXDZ7W5idri8VPrp04/dfH5rNOrYj2pK+dE mKHtaa29P6XWkRNa5uGg1yW05mQEAhuIzXh2W60xgKw9xb6dgG0+pswspdT+oaoJZgQlDU67671d HX/yJz915NSRF198nlNaLPs+kofUk2mom3o86ff6HecoKSyaRbJIFsiCIQFkkKQMOErmCbnjTuZy dhzj3vVrTgiGpp6mlMAcySTzdYpvXLv6p//sn5PMd3sDnxVld9DEZGBTMiVVmJmA2G6hqW/HZt48 dNAJ8Xd3tEREOuN7zcw5Z0wRFil964Xv/Jt//s/0jixtjPfK5aXAbmNvnPeXhpMYs0KzksrOeFIT 8lDHRKyshEiIBBWYEhTM7JgcESFGNLXVIYZQN5p3B1T0kuRRiilJLXnMsokyl91K8dWvf+Pf+jM/ l0AuL3ZH4xC1fboK43Z0EDHN6LjbNZ7BYcyAEcu5+x+keU1F0XKfMwPGrbUQJjJAvFNVEIlzIcZo qQrNz//lv/TaxubuZHJj4/ojD96fpzDa3pqMJ5SXwRWWFXt1k2U5K7z3AaZsgiikDBDI2IO8JuJ2 /JpCFUzsci66DXc2JjG4UovejTptBKTuSlUO+ifPvXBtcyfosy++/COf+tRT3/ym91IWHU1xP69h EAuzwVT5YLYzHzxGaEtKZDxjrc7d/8CMyZqVDqi9ybcGOi0X7FiiJgOiaR1Drz/48Mc+BpfXJLWq ePf8xe/86z/5k+fuObe0dmzp7Hku+0OVyihCqioEUPJOWR2SmBG1FLFXMIFVE2skL8hy8m5ibk/9 DnVosMa9ZV5cu+tdTx556PG1Bx9fPnP+8iT843/xe6snz0xCGk+nH/vYR//wc59LTeOYiXn/znle crxt+kdoJw5mEIxBJucuXABanzrzqzxDaAYN6CYuLTccVZU4xJTlxb0PPrB29K7tcZ1c0ZD4vPP6 G1e/8MUvfeDDH8sWlofBBnffNzhzz/LZc8GEuv3NyTg6MUCQHJShMFY4M3Y+U03QCEIk2ou2h2LP LZanH1678O6Fh55wgyO8dHTse7vIvvLia7/4K3/r2H0PBsk4z4bjyY0b1z71qR/51jNPa4KQELGp AcatvdubLP7Ak75Jb1KLyAOYTUxGt/mR7VuKc85UiTmZGnOADlaX3/2+H9oYV9Lrj5oYldVoZXll bzj6/c9/8T0f+jD3FnarZL78v/7F7z36Qx/onT3dmG3u7hHIw5ypM4XBIGqkKZGQeAlMu1EnWb9/ 5sKJR943uOeRL118dRoROv2xzye+c/H61i/8jV85+/Dj0luo1XYn416/18S6UxZN3WxtbjLzrMpl YJoXod8WkdYkZPbPuQsPtAfJaF4NapG1NyHSVnfVCN4bi3n3yR/7sc3pZCuEWjy5LKkyS+azLMuq lH73//n8kx/6cNFfniTeHI3+5qc/fe8jD9/z+BNF1tm4dg2hKhheY6obBnnnjYy8JNKR0jTv6fLx o09+ZMfK/+I3/u7LG3s//Cd/osmKymUXL1/+D//aXz95/wO91fXd6USKouh2WMQIW1ubZ86cvX79 RgyRSVIMZZ5rMjITJ4YEmBLt1+vJGERt2XUW6ZLJPRceaDFqLYX25+y3IMLEIYai29va3kXmzpw7 t3ri+E5oxkyBWdUYYGIhJse+6F7Z2vj608+858n3NzHeff7eyPTX/vNfqav6A+//4FJ/8eqrL3Uc oZoWvS5FS5oizBXZXhO1O6g6i2d++Md+/yvP/tW/9en7Hn3Pz/zsz26ORr7fuXjplf/gl37p7H0X Vo4dm6YUDOK9mrZBZLTovT925Ogbr7+RknaKMsXgWFIMxG2Mtj9GZn0mgDDXNLTQfOKn/jXMYSLl WZ1tNvUApGwzcOo6FJ1ybzIdrC5f3tr8ub/4F1649Ip1y8pl0eATMhYyKBIJfOYspEsXL3YS//Jf /UWbjhYHpaGud3eW2S9ouP5Hnx298I0jPO1oRWopmRTdrarKVo/scnniyY+MiuVxsRbyvplN62px deUbzz7zc//uv/2hT3w87y0M60byTjL4PAshOObMcaibXpbdtbr+tc99fuvGBjWhK46S5t5Nqqnz bIAStz6CbWYXczJlFnnwmwJ+ujV2BaDz2N57v7u72+/3b2xuve+DH9obT7gogoGZPZMXYlFQjNbU GicxaubWTp50ve4v/fIvd/qDahqqcSNcbI2aUdD1+x6amDPfrRpoNBFqmqa7sDhq0pQEq0crykbw o5Aai2WvePa5Z/7Cv/8XP/SxjwwWF8bV1HsRIeeEDAxiZrAzx9Fw5cb18w89VNW1y7M6RJf5OjRZ luHtZUnzpoAy2jAENM9kuK0StCZic1sxgojkeV41jc+zk6fPbO0NzXuf5YjJJRMYVMHKns1RsLRX TajMl08czXq9T//6rxtxRnlsLCs65jJkZW/1yLgxX/bZZyAXzcbTZhLt1PkHrTZzhQLkvDj3yuuX fv4v/6X3fuD9nUF/dzh0mc+yjEFkSWNgGAMpJTOLZHWKWVncdfb0ZDpdWFoaDocAmA9mszhoFPtY 7B/lA994S8xKavPEsa7rTm8QUjpz9zk4HwFljgaBCLk2xjczEcnIMaRT9EnySHLi/LlXrl77rz79 a+ZzcRmYwJSiDVaOJs6qqMg6FrXIOyGpL3qQYlzHZGIJInLxlVd/4Zf+k3c9+X7XW5gEwJdF2ZtU kYjIGGpC7FgYyszMTF7GTXX81En2bnt3p9/vE1EIoe2QEUCKOWNABrol3Vdukxcl1lkKs4/LwRxZ lZBMVdV7f9+F+0eTsS+LCApRSXKQB3kwmxFFuEh5dKhRj5pGaaJ0/xPv2Tb76//13+Zer7E0qSvJ M7iM8mJSJxipkSqY3GTaZEVZlp0ja2u58CsvvvQf/6e/cte9jwTfS77vBssVfCAfjNRY2Hl2nsWz eHG588wAu73RaO3Ius5SNsrzfB+RW9scl7ceOtjsdp4FQNntbg/3yoWFrNebplSHmPmC2alqSklh aOOiZJogxBpSp+yqUSLebeqVE3eNgP/sV/92Z7BgYLg8KFWB8t7itAnwZaVGvsiyTlPreFRvbu9d unzl53/hr5y+78Jg/UhkaWBVk3xW7A3Hvd4gJZsZBRERMbOIAMzOZ2VnPKmOnDhhjpPpcDwqyxIz b9rGFnPt5M1gfT5qaDY0EmhWT28VQ61DbeFgYzOrUpBuUa4v72oTHZF3qW4yACmyR4yRmdVMCSam rNGCQoURQoBx0esvHj02DPFv/M3/kqQAMvFFMIo+q105FjcxoazTNNjdmQyW1q9t7f57f+U/evh9 788WeuN6wl4IJqSerZtnqamzzBkbhIwpmipIFTBhl4P9OOq5+y8kQp2iK/KQGhiTMRtLCwBpa5p2 gDAj44M28rYM5XzqkUS0uL46iTHBmBlqZBBHlpL3oqoAvPd1DInUZZKQFEYCZTRQlFlvfW0v6q/+ xv/QuOKVnfGw6F4KulV2d3pLe4Ply+b2snIo/vnXL/+pP/vnn/zIR7PBghKMjWfBlEITE4T3Hxe1 LyJiEggbODETi2Q5OVG5qUwjA81waQHYf93EwbXfu0MBFDOvr69v1w15D0BVRSQFVY3eS11VnV4Z NInnBCMnqimRspekqhrFc2d5YWVh8fVvP/uLv/Zr733ons2tnWuXXhht3/BCyWRx+cjZex+LL732 9/7pbz7+0Y9VoKqqs1xoVt9pWSBqyz37yjQiIjC3rBDNdXFEeZ5nWabT0Bo+6JZuss1mDLvVjzg2 1v16zwEnfNuWZVlRFKgb7KvizCypODEjIjJVNXXe1SEQoVUrsyOLZqowUuGpYvX8+auvPv8//dY/ 7zsrmRfXz2zs7OZl9/Ju/Z2nn33updfOPvBIyHPK/WK3M5mO9xl2OtDe9N/5kZb6AglL5vNOOZ6O ACTYvlW9tR08zAfe32wQsFt4aTMriiLG6L0nopka0bjwGdSOrh9h5hhj5iSFMBMYQpkMagwIsRhi 1GDWMJ249/618w/sSXdLyzdGxAunJ7Ro/ePffmP7/Hvev3DXSel2G4uj8bBV+CnIiEmYnbT2wiQE hhGBW8pWZ1wRFNY+5G6325YNv8tjvm23D7a34eKNzSzLshBCa7FmxuwAMPNwd/exRx4OTdUty6aq HbMQxJRBUENInMiTtGG+z4pJCKOo1O0Pjp3cM9f4/lZNu7V8+5UrZx5+l1tcvDYe1pJUzJV+39Tb CWV/vOAtNkJEBGm/RkQhxt6gHzS19PAdInKHlXBup6C2XJCaYMxEzMSmKYa6Wxanjq4cX19PKVho sjJPTXDsYuvLwQLmRKzqiVOMIl7yvL+8sri4mGfl9pWNqHZj58aFxx5H4W+MR1k3bzjlpTTNVCgT EQKYeWYU1Fpnm5uScWs8jNb+nWhSYg4htDYCAQm/fd3lQOWc9GbodgeNiCTPyxgj5mJbJkMMD9x7 noF3P/rIcHurmzsLDVIkGGkC2LFndpoQEpmRRSuyvK6DEZnLusvLx8+cNu9OnT+fRBqyzmDg2zRE 1ZK2aydE5EAkfjMq3w9G9i2obQCCpjzPW+qP+bv5xzkuB/55U79xO411SinLsslkQkTe+7quAbAh Yzq2uuwU507dde70yWY0zpkdDJaYWVVNWIkbQJ1T9qROa8skg/G4rpD5cnnh7IX7jt9zJu93E0hV 26qMb1AiZwiMWj8CmbmMaMrsRDxIQKJm7csIKSXnXOvU2qyiBfdOnjkAR9D9eYgMt5jQmzBkbgcO k6jC+7xFbby7e+7UqWo8MuiPfPSjnUy+8vVvDFZXoyZyzgR1PTVi9lkDaNMU7EXyKjUBKc9Lx9A6 KMNlruh2InPTVForA6JZawBgsoO08a3TzdvdrRMXUzIzU7Xvuqriltn3bSqbDKQ3/4yoaRoRaSca 53wKStATR44sFEXSZjgcgdLHP/yvnD1z6rd/7zOjuuai5LxjZiTeldCEZJSIq5AgkmeZprquYkYo y9KidfIOwY+VQ1UTMZMQGwlFSvOet6HYjP854FGF5oU7BpCUWLz30zAPRuxt13DQrQGJA7VkgLLx gcn49mYynU6dc6oKs9YOzUxjJFUKqZdlDtbsbp9eW/n5P/dzTz938WvffObyxhY7ybu90eZek2Kv vwgSiIVQJ0XuhBgpplprIvHMWVaYUcUuxpiMjNTxjPzedxm4XTAysxqCMFsKqirM1WTqiBl05ytv 3jzX3IxfWxL7wHmIaDqdzgyEOabk2CPx+vpamflxM0UTYqo7heOU6o0bDx498vDpU6M6/tFTT73w 6suoxy7LrJkM43SwspaiTccjD8+OG1V2LkY1KLOTMvdCTT2ZpgSywjCL0tsR1NrCfO6fAcGEudU4 kbqpwQDLaDQSEYEgfm8/MiPYby53sXlJ5/YTDzNT1TR1Xc/jESWSVm9dVU1qQi4uc/Cq9XC4vrBg ZvVo0hH50cce0Scef+75i6+8dumF197o9xc3L1/qFOVipzMajVSo2+1OQxLhqAaLwuwcvBESzAxp Vsq9aSPzJ3QTkQNuhWhGqpLaaHePQSJiIXz3gGR/7LQ28j3xY8CIKMa4u7srZSfGSMSqipTKbl+y LI+ZhMZFzZA2rlzjnd1u2Vnp9x1LmFY7e3vdzc2Pnzv/44+9+5kXL3316W9NN3d60bLYVI5DXU/H 43JhybGSGsWUkYmjQBYTqZoRGWAAzyfa/ZU1baJDBzBqcwdhIcJ4PD5Y3zyYwd2eYTR2sw7vGwrb 3Nfe/IXNP9Nok93xQqdXxeCzIqZgGitrEkVHHOsqQ8q97F1+/Y3rV+5aXkqrK6vrK35pca3eefa5 p668/hL57D0PPfzkn3jvixdfeO7llysv28GuhuHd68euTibkOgxWJcfkHTvWSWpAXgmsSVSFSISN xYijKgAhotlERAoGEEyJSITJrKmaTMGCdCDlt7fISdh4xj+TOpgA4BmZGufgtSt3DAQYt4IDU3XE W1evL62tFeLh3V416nV8ypKKxWbqAZ+x4zTwmkmVbV3avf6drWfrssyPrB29p5iMdjZ7g+7Gl19x jtcVy10bgTfFv6zute0rXek2VCplEEoWLQYQ5XkZYmHJXJg4TQKDaQMkpggmIkYSzEpNAWQE4pjn nKJubGw2TdMrOtrEVvYxK5LPM1u+NYPR+ai5zVpWI5DNOft5QszMHvTGpdfe80M/dHW0t7O9019Z qaY7IaWUQsGSCXvWWI3Pnz72rRee7rnUoThNQx8r7KSFWGcIg4SqHktQMQTlTCSXvnNFP8tenNQb cW/MEVnXHKsJIWN25IShYk7MWKBMppRgxEJEBG0nV4MxoFAvHEPV6Qy+8dy3hTk2ocg8Ipulg33c r7oYGKQzZoDs9nnNvm/lg3wb4JybVNX169c1991OIWQUtRnW1FDm/PjG1WyQf+1LX7i/Xyxk4qdV 6ZVMXLK4O8ydE6YsJpfYjAKZkTJx36LX2LOq69wVo9cQN1M9liJJDs1MiRnkU/Kk5ojEDEhe1Bx5 gxqyRFEMZMhVQRqrRpBiXb326itrRU8UsQmWovibneW3Jz3uUMSmZFCN0NjtlV/+0hcHva5niVUt kGY4LV2xt7O7srzUjHddql569qk8hSxGCaEDypREg2goWBGmTlUMTCTMuWkeqoXpcHWyc7+EB4p4 Lq9Xba/TDDNEZpd0ljtHoeAkCKtk5ljYt4GZMRt5bUcQmUNyqkudzpVXX8mYM+ZOkavO4HiTB6G5 GOLgkdvYyFsXbLcRmyOuQjTQlavXWC1WU85zIRnvTafjelB2GGPPgcJ4qeP6KRaiVlfCHgph0dCw SNKoRqYsxq3cxSGwNoVBGxX1JrlQVkBuVJOhcypilJRUQQQHkgQmJiaYqe6zGUQJiTgS4FV9SN/6 +jc6zmkMkazNbpKG72IE+6nMnQodGSpMwtAUVhYGX/3iF4+vrnMInSwfj6dNDCHWhFSQ9iTF6W6v dD5jIoOZxQSQWgRFFoVTsLKpU/hknBJMPae8HnZHW+vTvXtduldsvRn2Jzu9NMm18apemRNRYCiR GigBJkhiaF9s7TrR5JNuXXlj6/KVjkjhpJ5MiSiE8KYHfUv1ctZHAyDnHnj4YIxDRAyhOZ/bHmUw iJIagZzPsrJ8/vmLjz7+WGgaERFxuaOTq72rz3/zrlNrxe61nddezLTOyJi5Vb+1GjfjBIY5ECAg NpqpjLi1zEhmuVGHOIPzpkiNpYaUBc6p5+RFiQxCyqaMKGYtNSettWgQi2udzuvPPz/a2lnodYvM a4pZ5gwKmkkjMZcYzXmnVghh7d4Pcu7CQwDmMUerBDg41No3IkCTGoyI6qYx2HQ6vfvs2aqqik6x s3Ht8XtOPf0Hv9vduXJksTu5emmxkzVNnXmX1By7ZNE5FzQaw1TbxL6FZS6JJEvBicvMLCTP1C8z TylOp1HNzMEcSJTZGKBEUDFlMjImmFhka5w1PjUnlha//dQ3NQQLMdZNG8LazZDsrYi0f80UirdH 5ID2s30zwJwIjEIKRZGL46tXrh49sl6URRLavnr5kVNHw5VXu+OdySsXl0pfT0feu2Qm5kAkJOC2 wkUcW3JUjM3IjIx4rkUwmEEZMKVYdSwOymzaGFwWiCpBcJy8AAqLIKmSN2MAAAoXSURBVIQYTDRp 4yh5NGWcLniK4+mXP/eFflnGEMo8N9MQk3NO3wLCPjc5R8Ruj8hMK3ELIgCgasRwLqub2onz3r34 4guPPf7Y9u5O1xHvbaxaWKjHq45TNVxeGDQpAnDKNOP/TMkoEamIiREZQRn7rCnNKEI2JmITpBxB iKTsjZp6GCp10EyiJrOQOZcJMxJpXOxmPkx198bJhc5qp/zsb//ueG+UZ3mKEQAzi7i2YHGL6c+v aje3RzEjknvuv3Dr9h00j1vadwVadsFiiHmWqSYmGJBlfmd7K4Zw5uxZTMe6eX1VdE3TEgGpno7H 4hwZS4Ikmj19MyiJFYAztlbpy6RkEa28iTg5TmwmRpQcEhGkLMgz2JI2CrCQJ4Km6e5OhzEgDZs3 uvVozdP9R1e3r1z9zGc/N1haaVEAsRlEvGqby6NNkw+qEA92n0C3WU1yc/eUW74NGDnnYkpOBESa dG119eLF5yzhofPnhtcv2872+ZWlLNWOVGNg50Th076Yy1qFE5mfi0MTITHZrDpPAHHa31ijrTQw Qmoy4YLBIcSq8rGRGHxddZEGIfam4+UU719fO7HQq7a3f/M3fnOwcjTvDVQNTN63xQM5QLXRgTFx m/YmRBig2W47c/x07mlFOKXonW9CnXufYvBO8qy49NKrmfgHH7jnyqWXTyz0CzavmnshNTETm8PM reyx1Q4SUWIkQpoL0AlECmKbi4BmS+jhkxYx9NSWmfuq+XTa03jEu8WmOgZ9YHHhZJat5xkm07/z 3/46F93B2olR3Rah1YlrknrJiBg6myL2+2UzjZkeKOzxmxCZ4zcvCLay8f1c28xaSq9NemJMeZY7 KZ67+J3Vo2u9bubidH2hT01toXYENmNTsJqA2ppaK8+gBE4zMWC7RQcYaAnVtoqLVl/KsAJUEEpY gdQTLOVupfArghNlvoiwaCFLIcbwv/7v//jGtOkdO1GbjOq67JRRzWaxLKeUbs6hLbPePop224sD Dvc2iND+GAOMbN/PtsXUGJq8yEITWNg7GQ7HjvPewsJnv/oHx06uxdHw2OJCSVoAAiWLDFPS5GBt aEIGbsARlJSRGNZSqSakRMZtvs1z/ooNaJIngoVYDxlhUHCf1DfjRYq51s7FqVb/3f/29y9u7mQn Tu/CJQOJIxaFtYoKKMyMSchovvjB5hpmm086dKeI3JwImGOMzrsYo7AT5iaETtElEyMuFjvPPPP1 ZrS7vjQ4srykTeXZxBIbqA032IxglhgAmTIpkRFjZheERPM7awVf1noSz6JJgeSERdhiQNJcpK6q wfLyG9vbv/o//t0Nc7x6bJwNpLMQYyrzYjKZsEi7iZBGdc7B7EAmc6eI2IwTuWlfs21n5pgI2rCW YDBmNiXHhRPXNJPjR9c2blz7rd/+v+++5/Tdd5+0qu6woGkIzKYEioCKA1ECWzsttgmbQlNiJmrX IKomGIswsSYFIFkOk0nVOCl90asDKvP5yrHf+vxX/5v/+R/Sysn8+Lldy6W7PA3JgymqEweQgMjQ 6n1narsZGzd7+ATi2f/ahMYOv3KRyYhh4jAe7i0uLfQGvX/yT36ryLNzp+9uqqZXdpu6JhbOvXmq Q3AkzCJg05SaBikJMXtP0Bjqdr2IOKegpEYswm44nPiy68r+XoAVA+suXK3ir/0v/+CPXr4sy8d5 4Uj0Xc66w+E0Y+dgfECG+13ardYxa4df3apM2jQj71GW5bSqclcWRfn0N5/b3hmfu/BwME4ilLvI NpwMe2WJpEjRUhIycY5FYMlCTWbsWJxnxxGWNKV28gFn3X7wnZ2Euruwadk/+9wf/Z1/9M9GxWDI 5eKJM5OgTbDMuTSZ9opsrgt4pz065ApogjqDIUVQu3I51Y2kwPVkcvWNRUl/6pMfffDU+omlbhpt ahiF4e5yUToDAarRQgPAOQfnLBl5Z4pJaBQsWa6EuknkigZcLh+5Ucff+co3fu8rT2/UtnTX3Skr R425LAshlC7TFEnNmNSJ3XFO/9Z2eBsx8RZS7bMc4PG4yfJeE8h1++ryvSZ+9stfurK5dfzU6aI3 KIqeYy8qABscsXcuZ1cYWBMgfho0mEjeia4YRwRk1F9Kiyub5P/Pz3/lv/+H//TpS9dl6bj2Vhvp VppHciFBXJZlvqqrLPMxJRK5gxHz9j069L6KGuJkMBhUVaymodtZaFIiduPxsN8rSevCqunG5Wf+ 8Os/86knf/i9T9x74khPo4vB5puPyCyzRAJlZVFF3ZtMs26/u7B8Y3vnWy+//M+/8OWvXXzBdxeO njxbm284d8WSSgH2ycCMqpowwUubPgGHWxR++H0D1Od+Z7jXzbpIWOgvDvdGRiAnVTPJco7VxGsz YEw3b8S93cnOxo9+9IN3HVs9e+rk2vKSE0GKTCZeqibsjcajadgajZ99/qWvPf3Naze2rOwsnjwT xA0Gi8RZ1SQYJ5WoAHsQEXGCKbTVY5OZF/4uWpH/DxBBhGVZFqow6HS3N7d6nT47mVYV5zKajrpl zqqlSBiPJSUNk9Hu9Wq6l+omF/S7vU6RQVOIDbHsjSfjKkpWZL2FotdzeYfysoKwLzPnmqaCGhPF oN77lNT5fFLVZbdbhxiSingimy1k+mNEpLVSMnBL/dhMRx813ZRNQnj2R/QZNFXWRI0VkjIUqow2 7RByniSD8yaZsjNwSm2o3xY7I5nOljCozkTaJgoGpOVcvXsH67hvtsPuP8IHRAj7WMw+apeVtvpy Qpgt/uNGkyFn58gVDkaq7W4b0tLILMqSSNQoJQa4LazMwntrw9w2V24r9QaYs5v8ziHbYREhA1lo iWybk00A9kWOZCxEszSLABAZizkiFhCbiRjU2NDqP1WpJQ6ZmK2N+mdbNcJ0XvF1QIsjgPnniK2N 2B3Lc2/bDr+voorOmLfEOluwY/vqSqDNtE15nnXLXKwMkJFGBSmSzp42kRipEcHmWTHSLNcmNWC+ ceJBBZ3NGaBkRN9dkvs92w9i700A7cKk+TtovrwJaGtG3O4MAJ3n4DAgGYhEhEzavRBmZzOC2S0r N/ZZrJnO/02VWWpXPe8PHD3MnhmHRcTAiffXJjFu0nRKs3JNu3WvGtq9E0HE871ECbDU2hS3m4nu qyixz33ORZmzy839Vpug6T70B4L3P1YbUUIih5mLVZ5l2xGtocxXm88eYJv8t0N9tusm6UwXaUb7 dJoB7fYTM2HMPs7KmNcZDha0mdEuAWg9iP6x+hEAmN0lG89Yt/b+Ffsrifd9nZlpOy+0Gzq1GzyB 210mrS31k7a/ge4TnDeHpM4ZPbMDHW91AWCyQ8GBH8js+6bJv51i2/uz2ZC+ObAPEsAGwBL2SWZD W6uZ/3K25sMOXEsJ7U4fB+dZnp3tlkVE77j9AGzkbbY65zk0uIOBPetMe6qD73d2LcyXVx6KB5hd 4vCn+P9Z+38BEn9MiB//QMkAAAAASUVORK5CYII= "
         height="52.013824"
         width="52.591755" />
    </g>
    <path
       style="opacity:1;fill:#5e81ac;fill-opacity:1;fill-rule:nonzero;stroke:none;stroke-width:132.28346252;stroke-linecap:round;stroke-linejoin:miter;stroke-miterlimit:4;stroke-dasharray:none;stroke-dashoffset:0;stroke-opacity:0.94007491"
       d="m 2.25,10.5 h 15 c 0.4155,0 0.48601,0.429142 0.75,0.75 l 28.385287,34.5 c 0.263989,0.320858 -0.3345,0.75 -0.75,0.75 H 2.25 C 1.8345,46.5 1.5,46.1655 1.5,45.75 v -34.5 c 0,-0.4155 0.3345,-0.75 0.75,-0.75 z"
       id="rect36"
       inkscape:connector-curvature="0"
       sodipodi:nodetypes="sssssssss" />
    <rect
       ry="0.75"
       y="15"
       x="1.5"
       height="31.49999"
       width="44.999989"
       id="rect843"
       style="opacity:1;fill:#5e81ac;fill-opacity:1;fill-rule:nonzero;stroke:none;stroke-width:132.28346252;stroke-linecap:round;stroke-linejoin:miter;stroke-miterlimit:4;stroke-dasharray:none;stroke-dashoffset:0;stroke-opacity:0.94007491" />
    <path
       style="fill:#81a1c1;fill-rule:evenodd;stroke:none;stroke-width:1px;stroke-linecap:butt;stroke-linejoin:miter;stroke-opacity:1;fill-opacity:1"
       d="M 1.5,25.5 H 18 L 21,18 h 25.5 v 28.5 h -45 z"
       id="path847"
       inkscape:connector-curvature="0" />
    <g
       style="stroke:none;fill:#eceff4;fill-opacity:1"
       transform="matrix(0.04497075,0,0,0.04497075,35.064876,12.895772)"
       id="g4571">
      <g
         style="stroke:none;fill:#eceff4;fill-opacity:1"
         inkscape:label="Capa 1"
         id="layer1-5"
         transform="matrix(9.206295,0,0,9.206295,-4262.7466,-3635.204)">
        <g
           style="stroke:none;fill:#eceff4;fill-opacity:1"
           id="g4207-8"
           transform="matrix(0.09021051,0,0,0.09021051,438.33618,482.07658)">
          <g
             style="stroke:none;fill:#eceff4;fill-opacity:1"
             id="g4571-5"
             transform="matrix(1.2040873,0,0,1.2040873,63.520816,-89.411289)">
            <g
               style="stroke:none;fill:#eceff4;fill-opacity:1"
               inkscape:label="Capa 1"
               id="layer1-9"
               transform="matrix(15.075,0,0,15.075,-6218.9215,-8263.6188)">
              <circle
                 r="0"
                 cy="531.79791"
                 cx="400.57138"
                 id="ellipse4233"
                 style="opacity:1;fill:#eceff4;fill-opacity:1;stroke:none;stroke-width:4;stroke-miterlimit:4;stroke-dasharray:none;stroke-dashoffset:0;stroke-opacity:1" />
            </g>
          </g>
        </g>
      </g>
      <g
         inkscape:label="Capa 1"
         id="layer1-4"
         transform="matrix(9.206295,0,0,9.206295,-4388.4576,-4368.3795)"
         style="display:inline;stroke:none;fill:#eceff4;fill-opacity:1" />
      <path
         sodipodi:nodetypes="cccccccccccccccccccccccccccccccccccccccccccccccccc"
         inkscape:connector-curvature="0"
         id="rect3081"
         d="m -229.82108,347.74743 c -2.30548,0.17843 -4.60558,0.87578 -6.73311,2.10411 l -11.78298,6.73312 c -7.56466,4.36744 -10.04851,13.89717 -5.68107,21.46183 l 102.25932,177.16587 37.453,-25.03915 -100.78644,-174.43019 c -2.72969,-4.72793 -7.3692,-7.6429 -12.41421,-7.99559 -0.75677,-0.0539 -1.54599,-0.0606 -2.31451,0 z m -36.19054,60.38771 c -5.04499,0.35277 -9.89492,3.05724 -12.62461,7.78517 l -10.31009,17.67445 38.92587,22.51389 10.31009,-17.67445 c 4.36745,-7.56466 1.8836,-17.09439 -5.68107,-21.46183 l -11.57255,-6.73313 c -2.83674,-1.63784 -6.02062,-2.31573 -9.04764,-2.1041 z m -29.45742,37.03218 -88.16182,152.9687 38.92587,22.30347 88.16183,-152.75829 z m -128.77098,68.59391 v 45.02776 h 52.18424 l 25.88045,-45.02776 z m 152.33776,0 -25.88045,45.02776 h 136.97447 l -26.09086,-45.02776 z m 159.27625,0 26.090858,45.02776 h 48.18728 v -45.02776 z m 5.05321,27.98487 -37.453,25.03847 18.72651,32.40316 37.453008,-25.03847 z m 25.459638,44.18613 -37.453008,25.03846 c 1.11581,44.76855 35.304668,39.19419 48.394338,67.12117 24.92452,-26.53457 17.38787,-67.3373 -10.94133,-92.15963 z m -308.250838,23.77601 -20.40978,73.01264 59.33566,-50.49842 z"
         style="opacity:1;fill:#eceff4;fill-opacity:1;stroke:none;stroke-width:10.71922588" />
    </g>
  </g>
</svg>
